<svg width="88" height="71" viewBox="0 0 88 71" fill="none" xmlns="http://www.w3.org/2000/svg">
<path d="M87.2394 39.0236L79.0026 38.4972C79.0645 37.5683 79.1264 36.6083 79.1264 35.6484C79.1264 16.264 63.3959 0.533447 44.0115 0.533447C27.2282 0.533447 13.2008 12.3004 9.73262 28.0309H3.22986C2.79634 28.0309 2.42475 28.2476 2.17703 28.5573L0.257163 31.2203C0.195232 31.3132 0.133301 31.468 0.133301 31.6229C0.133301 31.9945 0.442956 32.2731 0.783577 32.2731L8.98945 32.7996C8.92752 33.7285 8.86559 34.6885 8.86559 35.6484C8.86559 55.0328 24.5961 70.7633 43.9805 70.7633C60.7639 70.7633 74.7913 58.9964 78.2594 43.2659H84.7622C85.1957 43.2659 85.5673 43.0492 85.815 42.7395L87.7349 40.0765C87.8278 39.9526 87.8587 39.8287 87.8587 39.6739C87.9206 39.3023 87.611 39.0236 87.2394 39.0236ZM44.0115 5.48794C60.4852 5.48794 74.1719 19.1437 74.1719 35.6484C74.1719 36.4845 74.141 37.3515 74.0481 38.1876L48.8421 36.5774L59.773 29.0837C59.9278 28.9908 60.0207 28.805 60.0207 28.6192C60.0207 28.3096 59.773 28.0618 59.4633 28.0618H14.8419C18.2791 15.1492 30.1389 5.48794 44.0115 5.48794ZM44.0115 65.8088C27.5378 65.8088 13.851 52.153 13.851 35.6484C13.851 34.7814 13.882 33.9453 13.9749 33.1092L39.2118 34.6885L28.312 42.2131C28.1571 42.306 28.0642 42.4918 28.0642 42.6776C28.0642 42.9872 28.312 43.235 28.6216 43.235H73.181C69.7439 56.1166 57.8531 65.8088 44.0115 65.8088Z" fill="white"/>
</svg>
