<svg width="94" height="71" viewBox="0 0 94 71" fill="none" xmlns="http://www.w3.org/2000/svg">
<path d="M4.77794 62.449H0.333496V70.6465H2.83555V68.2432H4.61333C9.05777 68.2432 11.066 66.7617 11.066 65.2803C11.0331 63.5354 8.62979 62.449 4.77794 62.449ZM2.83555 63.6671H4.38288C5.83143 63.6671 8.30057 63.8646 8.30057 65.2473C8.30057 65.6753 8.30057 67.058 4.08658 67.058H2.83555V63.6671Z" fill="white"/>
<path d="M16.5636 68.0793V67.0916H22.8187V65.7748H16.5636V63.7336H23.115V62.4167H14.0615V68.1122C14.0615 69.8571 14.9175 70.6143 16.827 70.6143H23.3455V69.2974H17.8475C16.794 69.3303 16.5636 68.8365 16.5636 68.0793Z" fill="white"/>
<path d="M34.7367 69.1329C34.0125 69.3633 33.2553 69.495 32.3334 69.495C31.1483 69.495 29.173 69.2646 29.173 67.7831V62.4827H26.6709V67.9477C26.6709 69.8901 28.2841 70.9106 31.3787 70.9106C33.4199 70.9106 35.2964 70.5485 37.0742 69.7913L37.1729 69.7584V62.4827H34.6709V69.1329H34.7367Z" fill="white"/>
<path d="M49.7492 69.1321C49.0249 69.3625 48.4653 69.5601 47.3459 69.5601C44.9097 69.5601 43.2307 68.342 43.2307 66.5642C43.2307 64.3255 45.2718 63.5354 47.1813 63.5354C48.8603 63.5354 50.1772 63.9963 51.4611 64.4243L51.955 64.5889V62.9099L51.8233 62.8769C50.2101 62.416 48.8603 62.2185 47.1484 62.2185C43.2307 62.2185 40.3994 64.0621 40.3994 66.5642C40.3994 69.1321 43.099 70.8769 47.1484 70.8769C49.1895 70.8769 51.2636 70.416 52.0537 70.1856L52.1854 70.1527V66.7617H49.7163V69.1321H49.7492Z" fill="white"/>
<path d="M58.3085 68.0793V67.0916H64.5636V65.7748H58.3085V63.7336H64.8599V62.4167H55.8394V68.1122C55.8394 69.8571 56.6953 70.6143 58.6048 70.6143H65.1233V69.2974H59.6254C58.5389 69.3303 58.3085 68.8365 58.3085 68.0793Z" fill="white"/>
<path d="M74.3413 62.2185C70.4236 62.2185 67.5923 64.0621 67.5923 66.5971C67.5923 69.165 70.2919 70.8769 74.3413 70.8769C78.3577 70.8769 81.0902 69.165 81.0902 66.5971C81.0902 64.0621 78.2589 62.2185 74.3413 62.2185ZM74.3413 63.5354C76.152 63.5354 78.2919 64.3584 78.2919 66.63C78.2919 68.5066 76.7445 69.6917 74.3413 69.6917C71.938 69.6917 70.3906 68.4736 70.3906 66.63C70.3906 64.7206 71.938 63.5354 74.3413 63.5354Z" fill="white"/>
<path d="M82.5391 62.449V63.8975H86.8518V70.6465H89.3539V63.8975H93.6666V62.449H82.5391Z" fill="white"/>
<path fill-rule="evenodd" clip-rule="evenodd" d="M68.1528 47.7993C67.5931 46.1532 65.8812 43.1244 64.1363 40.0956C63.1982 38.4538 62.2935 37.0126 61.4698 35.7004L61.4692 35.6995L61.4691 35.6993L61.4683 35.698C61.1363 35.1691 60.8175 34.6613 60.5149 34.1697C60.0211 33.3795 60.0869 32.9845 60.2516 32.8528C60.482 32.6882 61.9306 31.075 63.3791 29.4289C64.8606 27.717 65.0911 26.5647 64.1363 24.0627C63.7662 23.0845 63.014 21.512 62.2547 19.9247L62.2546 19.9245L62.2542 19.9235L62.2527 19.9205L62.2526 19.9202C62.067 19.5323 61.881 19.1435 61.7001 18.7623C61.4305 18.205 61.1535 17.6454 60.8866 17.106L60.8863 17.1053C60.1755 15.6692 59.5361 14.3773 59.2968 13.6594C58.5725 11.5195 58.5067 10.5647 58.9347 9.44538C59.3956 8.19435 60.054 8.16144 60.3833 8.19436C60.5149 8.19436 60.6466 8.22728 60.6466 8.32604C60.6466 8.91864 60.6796 9.7746 61.338 11.4865C62.3256 14.0874 65.1898 15.9639 66.2104 16.3919C66.6055 16.5565 67.0335 15.931 67.0005 15.7664C66.9883 15.7297 66.9534 15.5706 66.9009 15.3311L66.9008 15.3308C66.8118 14.925 66.6723 14.2887 66.5067 13.6265L65.4532 9.80752C64.7948 7.17378 64.4656 6.31781 63.84 5.72522C62.9512 4.86925 61.5026 4.37543 60.054 4.44127C57.8812 4.54004 56.3997 6.02152 55.5108 7.99682C54.2598 7.40423 52.7783 5.33016 52.4491 4.24374C52.3174 3.78283 52.1528 3.22316 51.3956 2.95979C50.4393 2.63755 49.716 2.37111 49.0682 2.13248L49.0682 2.13247L49.0681 2.13245C47.6643 1.61533 46.6151 1.22883 44.3174 0.688187C43.659 0.523578 42.9347 0.457733 41.8483 0.655263C39.9059 1.0174 38.6549 1.3137 36.9759 2.20259C36.1857 2.63057 35.9553 3.02563 35.8236 3.25609C35.659 3.51946 35.5602 3.61823 35.3956 3.68407C34.8689 3.84868 33.0252 4.70464 32.3668 5.09971C31.9717 5.33016 31.5767 5.72522 31.8071 6.25197C32.1693 7.10794 32.8935 8.62234 33.4203 9.08325C33.6445 9.28258 34.3591 9.53848 34.7933 9.69397L34.7934 9.69401C34.9328 9.74394 35.0433 9.78351 35.0993 9.80752C35.3298 9.87337 35.3956 9.84044 35.5602 9.70876C35.5931 9.68681 35.6187 9.60999 35.6529 9.50757C35.7212 9.30272 35.8236 8.99545 36.087 8.81987C36.482 8.5565 37.338 8.39189 37.8647 8.32604C38.2269 8.29312 38.4903 8.35896 38.7207 8.55649C38.8524 8.68818 39.1158 9.05032 39.2475 9.44538C39.376 9.8632 39.2849 9.93588 39.1274 10.0616L39.1158 10.0709C38.8524 10.2355 38.5561 10.3343 37.7001 10.433C37.0746 10.4989 36.91 10.466 36.5808 10.3343C36.5412 10.323 36.5036 10.3107 36.4671 10.2988C36.2909 10.2413 36.1405 10.1923 35.9223 10.3014C35.8401 10.3507 35.6344 10.4659 35.4287 10.5811L35.4286 10.5812L35.4285 10.5812C35.2227 10.6964 35.017 10.8116 34.9347 10.861L34.9197 10.867C34.7641 10.9291 34.6693 10.9669 34.6055 11.1902C34.5248 11.4055 34.62 11.6207 34.6754 11.7461C34.6878 11.7742 34.6982 11.7977 34.7042 11.8158C34.7042 11.8158 35.9882 14.0544 36.8442 14.3178C37.0417 14.3837 37.2063 14.4166 37.338 14.4166C37.7989 14.4166 38.161 14.1861 38.7207 13.7911C39.3133 13.3631 39.5438 13.3302 39.6425 13.5277C39.7084 13.6265 39.7084 13.7252 39.6754 13.7911C39.5767 14.1532 38.3586 15.8981 38.194 15.7993C38.0129 15.717 37.7824 15.6018 37.4861 15.4536C37.1898 15.3055 36.8277 15.1244 36.3833 14.9104C35.9329 14.6822 35.4278 14.4256 34.8985 14.1566L34.8984 14.1566C32.5257 12.951 29.6668 11.4983 29.0746 11.2561C27.9224 10.8281 27.1652 10.6964 26.0787 10.6635C25.1898 10.6306 24.0376 10.6964 23.2475 10.861C22.6219 10.9927 22.2598 11.289 21.7331 11.7499C20.7454 12.6717 20.2187 13.4289 20.1528 14.0874C20.087 14.7129 20.7125 15.7993 20.7783 15.8981C21.1075 16.326 21.2392 16.326 21.9635 16.0956C22.6549 15.8981 23.017 15.8651 23.3791 15.931C23.8401 15.9968 23.9388 16.2931 24.0047 16.8528C24.0376 17.1491 24.301 17.4783 24.7289 17.4783L24.7554 17.4759C25.1042 17.444 25.369 17.4197 25.9471 17.7088C26.5067 18.0051 27.4944 18.7293 27.9553 19.0915C26.1775 19.289 23.6754 19.7828 22.3915 20.1779C21.338 20.54 20.2845 20.9351 19.8565 21.6923C19.3956 22.4824 18.8689 23.6676 18.7043 24.5565C18.5067 25.7088 19.7907 26.9927 19.7907 26.9927C19.8169 27.0124 19.8445 27.0361 19.874 27.0613L19.8741 27.0614L19.8742 27.0614C19.9922 27.1626 20.1396 27.289 20.3503 27.289C20.482 27.289 20.6137 27.2561 20.7783 27.1573C20.7783 27.1573 22.194 26.1697 23.0828 26.1038C23.3462 26.1038 23.4779 26.2355 23.7413 26.6964C23.873 26.9269 24.1034 26.9598 24.2351 26.9598C24.3285 26.9598 24.6041 26.877 24.8034 26.8171L24.8035 26.8171L24.804 26.8169L24.8041 26.8169C24.8855 26.7924 24.9541 26.7718 24.9923 26.7622C25.6178 26.5976 28.9429 26.466 31.3791 26.466C32.0748 26.466 33.1375 26.4834 33.714 26.4929L33.715 26.4929L33.7153 26.4929L33.7157 26.4929C33.9295 26.4965 34.076 26.4989 34.1117 26.4989C34.8689 26.4989 35.6919 26.6635 36.6466 27.2232C36.9888 27.4285 37.3488 27.7227 37.6989 28.0088C38.0223 28.2732 38.3373 28.5307 38.6219 28.7046C37.9964 29.6923 36.1857 32.8857 35.231 34.6635C34.6644 35.6894 34.1833 36.5089 33.7943 37.1714L33.7942 37.1715L33.7942 37.1716C33.3469 37.9334 33.0214 38.4878 32.8277 38.9104C32.4985 39.6347 32.1363 40.8528 32.2022 41.8734C32.2339 42.296 32.2656 42.6542 32.2929 42.9632C32.3508 43.617 32.3892 44.0506 32.3668 44.4083C32.3668 44.6059 32.0376 44.7046 31.4779 44.8034C31.0828 44.9022 30.4903 45.0009 29.7989 45.0997C29.6733 45.1198 29.5446 45.1399 29.4137 45.1603L29.4136 45.1603C28.6867 45.2739 27.8905 45.3982 27.1652 45.5935C25.7495 45.9557 25.0582 46.3178 24.7619 47.6017C24.5643 48.4248 24.268 50.2355 24.2351 51.2231C24.2351 51.4865 24.2351 51.7499 24.4326 51.9803C24.5973 52.145 24.8606 52.2108 25.1898 52.145C25.2079 52.145 25.3081 52.1251 25.4602 52.0949C25.8616 52.0151 26.6251 51.8635 27.1981 51.8157C28.1528 51.7499 30.9182 51.7499 30.9182 51.7499C32.2678 51.7499 34.8344 51.9966 36.9441 52.1994L36.9442 52.1994L36.9443 52.1994H36.9443C37.8195 52.2835 38.6161 52.3601 39.2145 52.4083C39.3791 52.4083 39.6096 52.3754 39.7742 52.2108C39.9388 52.0133 39.9388 51.7499 39.9059 51.6182C39.8947 51.4622 39.8572 51.1894 39.8112 50.8546C39.7211 50.1999 39.5985 49.3082 39.5767 48.5894L39.576 48.5739C39.5433 47.8232 39.5149 47.1695 40.1034 46.5482C40.2552 46.3827 40.6152 45.9799 41.0962 45.4419L41.0994 45.4383L41.101 45.4365L41.1019 45.4354L41.1029 45.4344L41.1043 45.4328L41.1057 45.4312C41.7712 44.6867 42.6657 43.686 43.5602 42.6964C45.2392 40.8199 47.7742 38.219 47.84 38.2849C47.9598 38.3647 48.4933 38.7616 49.2603 39.3322L49.2606 39.3324C50.3921 40.1741 52.0318 41.3939 53.6014 42.5318L54.4244 43.1244L54.4434 43.1383C55.2916 43.7582 56.0461 44.3096 57.1898 44.3096C57.4203 44.3096 57.552 44.6059 57.552 44.8034C57.552 44.9022 57.552 45.1655 57.4532 45.1985C57.3307 45.223 57.1944 45.2497 57.0488 45.2784C56.4118 45.4037 55.5942 45.5644 54.9512 45.7252C53.6672 46.0215 53.2721 46.5153 52.91 47.3384C52.5808 48.0956 52.1857 51.3548 52.1857 51.5194C52.1857 51.6511 52.1857 51.8487 52.3174 52.0133C52.4162 52.112 52.5808 52.2108 52.9429 52.145C54.1281 51.9145 55.7413 51.7828 57.5191 51.7828C59.626 51.7828 62.9512 51.8816 63.9717 52.0133C64.3668 52.0791 64.7948 52.112 64.8606 52.112C65.3215 52.112 65.4861 51.8816 65.6837 51.5853C66.0129 51.0585 66.8359 50.0709 67.7248 49.3466C68.3503 48.7869 68.3503 48.4577 68.1528 47.7993ZM60.4491 26.4001C59.8236 27.1902 57.8483 28.145 57.2557 28.3096C56.7948 28.4742 56.4655 28.4083 56.1363 28.112C55.9388 27.9474 54.7207 26.5976 53.7989 25.5112C53.1075 24.6882 52.4491 23.7005 52.2186 23.2725C52.2014 23.2381 52.1825 23.202 52.1629 23.1644L52.1628 23.1642L52.1627 23.1642C52.0322 22.9148 51.8695 22.6039 51.9553 22.3178C52.0211 22.0544 52.2516 21.824 52.6466 21.6923C52.7888 21.6406 53.2813 21.5178 53.8509 21.3758C54.732 21.1561 55.7976 20.8904 56.0376 20.7705C56.5643 20.5071 57.1569 19.9145 57.2228 19.0915C57.2557 18.7952 57.2557 18.466 57.2557 18.2026C57.4861 18.6306 58.3421 20.2767 58.3421 20.2767L58.3716 20.3311L58.3717 20.3313L58.3719 20.3317C59.2224 21.9018 60.2554 23.8088 60.5808 24.6223C60.91 25.2478 60.9429 25.7746 60.4491 26.4001ZM66.935 47.7006C66.0461 45.4948 63.577 40.6882 60.1861 35.717C56.2354 29.9228 52.8445 25.5442 51.0338 23.3055C50.3095 22.4166 50.3424 20.8693 51.4289 20.5401C52.0145 20.3571 52.7527 20.2148 53.4852 20.0736C54.0704 19.9608 54.6519 19.8486 55.149 19.7171C56.0041 19.489 56.0448 19.0636 56.1045 18.4407V18.4407C56.1137 18.3441 56.1234 18.2428 56.1367 18.1368C56.2354 17.3138 55.9721 12.9022 55.4453 10.499C55.3466 10.0051 55.1819 9.31377 54.7869 9.0504C54.4247 8.78702 53.4371 7.79937 52.6799 6.9434C51.8239 5.95575 51.3959 5.00101 51.2643 4.27673C51.2643 4.27673 51.2313 4.11213 51.0667 3.94752C51.0009 3.88167 50.968 3.84875 50.8363 3.78291C49.3219 2.8611 44.0544 1.41254 42.968 1.31377C42.2437 1.24793 39.6099 1.57715 37.2066 3.02571C36.8409 3.25211 36.6594 3.50616 36.4965 3.73423C36.3515 3.93729 36.2211 4.11977 35.9885 4.24381C35.7434 4.39091 35.3441 4.52178 34.8591 4.68073C34.3671 4.84195 33.787 5.03207 33.1902 5.29731C32.5318 5.59361 32.5318 5.62653 32.6964 5.98867C32.7622 6.15328 33.1243 6.97632 33.3548 7.27262C33.684 7.00925 37.898 4.93517 41.3877 4.90225C42.6717 4.90225 43.3301 5.00101 44.0873 5.8899C44.9762 6.9434 47.1819 9.74175 47.8733 11.1903C48.1367 11.75 48.2684 12.3755 48.2684 12.7706C48.2684 13.3117 48.0959 13.7297 47.9214 14.1524C47.8943 14.2182 47.867 14.2842 47.8404 14.3508C47.5441 15.108 46.2601 17.8076 46.0955 18.1368C45.5029 19.2562 44.8445 19.8158 43.8239 19.4208C43.5958 19.3378 43.3676 19.2287 43.2053 19.1511C43.11 19.1055 43.0374 19.0708 43.0009 19.0586C41.3219 18.3014 37.042 16.1286 36.0544 15.6018C35.8504 15.4998 35.4636 15.3038 34.9624 15.0499L34.9621 15.0497L34.9619 15.0496L34.9616 15.0495L34.9614 15.0493C33.683 14.4015 31.6611 13.3769 30.0297 12.573C29.1737 12.145 28.4824 11.8488 27.7252 11.6512C26.0462 11.2232 24.2355 11.4208 23.3795 11.5525C23.149 11.5854 22.9844 11.8158 22.8857 12.0463C22.8527 12.0792 22.8527 12.145 22.8527 12.178C22.7869 12.3755 22.8198 12.573 23.182 12.573C23.3229 12.573 23.4596 12.5709 23.5953 12.5689L23.5955 12.5689C23.9987 12.5627 24.393 12.5567 24.861 12.6059C25.7499 12.7047 26.7704 12.8364 28.0544 13.2315C29.47 13.6594 38.4906 18.6306 40.6305 19.8817C42.7704 21.1327 45.7005 22.9105 48.4659 25.0833C52.219 28.0792 55.2807 31.4701 58.3424 35.8158C59.5272 37.4924 60.4995 39.0476 61.3314 40.3782L61.3315 40.3783L61.3317 40.3786L61.3318 40.3788C61.7249 41.0076 62.0867 41.5863 62.4247 42.1039C63.4453 43.717 64.0379 44.6718 64.1038 45.2973C64.1696 46.0216 63.8404 46.2849 63.0503 46.5154C62.0722 46.7999 60.5849 47.219 59.3202 47.5753L59.3192 47.5756C58.2431 47.8788 57.3282 48.1365 57.0256 48.2273C56.7293 48.3261 56.5647 48.5236 56.4659 48.787C56.3671 49.0175 56.3671 49.5113 56.3671 49.7088L56.3673 49.7783L56.3676 49.8244C56.3701 50.2339 56.3721 50.5648 56.0708 50.5648C56.2728 50.5648 56.5626 50.5605 56.9198 50.5552L56.9207 50.5552C58.5436 50.5312 61.556 50.4866 64.0379 50.7294C64.1105 50.736 64.1765 50.7466 64.2374 50.7563C64.4806 50.7953 64.6438 50.8214 64.828 50.5319C65.0914 50.1039 66.1449 48.8858 66.8692 48.3919C67.1984 48.2273 67.0009 47.8323 66.935 47.7006ZM39.5067 29.1247L39.5067 29.1247L39.5067 29.1248C39.4977 29.1375 39.488 29.1512 39.4771 29.1657C39.2138 29.5608 37.436 32.3262 36.0203 34.927C34.9668 36.8365 33.7158 39.5361 33.4854 40.1945C33.2878 40.7871 33.222 41.3468 33.2549 42.0052C33.2549 42.377 33.2969 42.8851 33.3394 43.3994C33.3721 43.796 33.4052 44.1962 33.4195 44.5402C33.4524 45.2974 33.2878 45.6266 32.4977 45.7583C32.2559 45.8067 31.6278 45.9172 30.8874 46.0475L30.8862 46.0477C29.6106 46.2721 28.0021 46.5552 27.4607 46.6801C26.5718 46.9106 26.3084 47.3385 26.1438 47.9641C25.9792 48.5896 25.7158 49.8077 25.7158 50.071C25.6829 50.3344 25.7158 50.4003 25.9792 50.3674C26.2096 50.3344 26.7364 50.2686 26.9668 50.2686C27.1448 50.2432 27.1657 50.1392 27.1963 49.9871C27.2053 49.9422 27.2152 49.8931 27.2302 49.8406C27.2628 49.743 27.2873 49.6052 27.3196 49.4232C27.3527 49.2369 27.3941 49.0044 27.4607 48.7213C27.5924 48.1616 27.757 47.7336 28.5142 47.5032C28.9511 47.3757 30.1933 47.1476 31.3168 46.9413C32.2251 46.7745 33.0558 46.622 33.3208 46.5484C33.9133 46.3838 34.2755 46.1534 34.3413 45.5608C34.3793 45.2189 34.3516 44.6689 34.3213 44.0687L34.3213 44.0686C34.2991 43.6284 34.2755 43.1613 34.2755 42.7295C34.2426 41.676 34.2426 41.2151 34.8352 40.0628C35.9874 37.89 39.7076 32.853 42.1109 29.8571C42.1109 29.8571 41.4854 29.6266 41.1891 29.4949C41.0817 29.4559 40.9511 29.4052 40.8128 29.3516L40.812 29.3513L40.8119 29.3513C40.4842 29.2241 40.1133 29.0803 39.9051 29.034C39.6122 28.9754 39.5799 29.0211 39.5067 29.1247ZM35.297 25.4447L33.8772 23.3048C31.4081 23.3048 30.585 23.3048 28.6097 23.4694C27.0295 23.6011 25.88 24.896 25.585 25.4447C25.9639 25.4261 26.4074 25.3823 26.9115 25.3325H26.9116C27.8948 25.2354 29.1087 25.1155 30.5233 25.1155C32.6632 25.1155 34.4739 25.1155 35.297 25.4447ZM39.869 3.17678C39.8379 3.18122 39.806 3.18577 39.7736 3.18982C39.3785 3.25566 38.0946 3.58488 37.9958 3.6178C37.8641 3.65072 37.7983 3.71656 37.6995 3.84825C37.6008 4.01286 37.5678 4.30916 37.6008 4.44084C37.6337 4.57253 37.7654 4.63837 37.9629 4.57253C38.0946 4.52315 38.5555 4.35854 39.0164 4.19392C39.4773 4.02932 39.9382 3.86471 40.0699 3.81533C40.2016 3.78241 40.2345 3.71657 40.2674 3.65072C40.3004 3.55197 40.3004 3.4203 40.3004 3.32154V3.3215C40.2715 3.1194 40.0907 3.14518 39.869 3.17678Z" fill="white"/>
</svg>
