<svg width="60" height="72" viewBox="0 0 60 72" fill="none" xmlns="http://www.w3.org/2000/svg">
<path d="M32.672 62.418H22.5799V64.6642H27.4575L22.4194 69.3653V71.2426H32.656V68.9963H27.5537L32.672 64.2952V62.418Z" fill="white"/>
<path d="M16.6429 71.4669C20.6701 71.4669 21.713 70.44 21.713 68.1617V62.4016H18.5201V68.0012C18.5201 68.8355 17.75 69.2687 16.6429 69.2687C15.5037 69.2687 14.7657 68.8355 14.7657 67.9852V62.4016H11.5728V68.1617C11.5728 70.44 12.5996 71.4669 16.6429 71.4669Z" fill="white"/>
<path d="M38.576 71.4669C42.6032 71.4669 43.6461 70.44 43.6461 68.1617V62.4016H40.4532V67.9852C40.4532 68.8516 39.667 69.2687 38.576 69.2687C37.4368 69.2687 36.6988 68.8355 36.6988 67.9852V62.4016H33.5059V68.1617C33.5059 70.44 34.5327 71.4669 38.576 71.4669Z" fill="white"/>
<path d="M59.515 62.418H56.1777V71.2426H59.515V62.418Z" fill="white"/>
<path d="M55.7443 62.418H51.3481L47.8183 65.4665V62.418H44.481V71.2426H47.8183V68.1138L51.1074 71.2426H55.5839L50.7063 66.718L55.7443 62.418Z" fill="white"/>
<path d="M3.91985 64.8569C3.91985 64.1349 4.93067 64.1509 5.26761 64.1509C5.60455 64.1509 6.37469 64.2793 6.90417 65.1457H10.6747C10.6747 63.477 9.10229 62.1614 5.28365 62.1614C1.04785 62.1614 0.325837 64.0226 0.325837 65.0815C0.325837 67.055 1.85008 67.6487 5.17134 67.9856C6.00566 68.0658 7.17693 68.0498 7.17693 68.7718C7.17693 69.3815 6.21424 69.4296 5.84522 69.4296C5.49223 69.4296 4.81836 69.3655 4.27284 68.4028H0.133301C0.133301 70.3442 1.43292 71.4513 5.84522 71.4513C9.90453 71.4513 10.9795 69.7987 10.9795 68.5311C10.9795 67.3117 10.1452 66.0602 6.67954 65.627C5.23552 65.4505 3.91985 65.3382 3.91985 64.8569Z" fill="white"/>
<path d="M29.591 59.6261L0.389648 39.2333C0.389648 39.2333 12.7762 30.0878 23.1571 37.0993L37.0518 46.662L38.7525 45.5389L0.485917 18.7442C0.485917 18.7442 9.39073 15.1823 17.9746 9.51848C24.2642 5.37895 29.8959 0.533447 29.8959 0.533447L59.5465 21.199C59.5465 21.199 46.2133 30.1199 36.9235 23.5736C27.6336 17.0274 22.5795 13.7222 22.5795 13.7222L20.9911 14.7811L59.3379 41.64C59.3379 41.64 53.8346 43.2445 43.1809 49.8067C33.6182 55.6952 29.591 59.6261 29.591 59.6261Z" fill="white"/>
</svg>
