<svg width="98" height="57" viewBox="0 0 98 57" fill="none" xmlns="http://www.w3.org/2000/svg">
<path d="M74.0208 48.3251V47.7789C74.0208 47.7529 74.0208 47.7529 74.0468 47.7529C74.567 47.2067 74.9831 46.1143 74.9831 44.8138C74.9831 42.2129 73.1105 40.7043 70.7696 40.7043H60.6C60.4179 40.7043 60.2879 40.8344 60.2879 41.0165V44.5277C60.2879 44.6838 60.4179 44.8138 60.574 44.8138H68.6889C69.3911 44.8138 69.8593 45.1259 69.8593 45.7501C69.8593 46.3744 69.3911 46.7385 68.6889 46.7385H61.5884C61.4323 46.7385 61.3023 46.8685 61.3023 47.0246V50.1717C61.3023 50.4578 61.5363 50.4578 61.5884 50.4578H69.4952C70.2495 50.4578 70.6396 50.796 70.6396 51.3942C70.6396 52.1224 70.1454 52.4345 69.2871 52.4345H60.4179C60.2619 52.4345 60.1318 52.5646 60.1318 52.7206V56.2579C60.1318 56.414 60.2619 56.544 60.4179 56.544H70.2755C74.0468 56.544 75.7634 54.5933 75.7634 51.8103C75.7634 50.1197 75.0352 48.9493 74.0468 48.4031C74.0468 48.3771 74.0208 48.3511 74.0208 48.3251Z" fill="white"/>
<path d="M59.2735 56.076L52.381 40.8605C52.329 40.7565 52.225 40.6785 52.0949 40.6785H46.1128C45.9827 40.6785 45.8787 40.7565 45.8267 40.8605L38.9342 56.076C38.8302 56.284 38.9862 56.5181 39.2203 56.5181H44.006C44.1361 56.5181 44.2401 56.4401 44.2921 56.3361L44.9163 54.7495C44.9684 54.6455 45.0724 54.5674 45.2025 54.5674H53.0573C53.1873 54.5674 53.2913 54.6455 53.3434 54.7495L53.9676 56.3361C54.0196 56.4401 54.1236 56.5181 54.2537 56.5181H59.0134C59.2215 56.5181 59.3775 56.284 59.2735 56.076ZM51.4447 50.458H46.763C46.685 50.458 46.607 50.3539 46.659 50.2759L48.7397 45.2041C48.7917 45.1 48.8698 45.022 48.9998 45.022H49.2339C49.3379 45.022 49.442 45.1 49.494 45.2041L51.6007 50.2759C51.6007 50.3799 51.5487 50.458 51.4447 50.458Z" fill="white"/>
<path d="M29.8311 56.076L31.5477 52.5127C31.5737 52.4607 31.5477 52.4087 31.4957 52.4087H30.5854C30.1692 52.4087 29.8831 52.2006 29.675 51.9145L23.0687 41.1206C22.9646 40.9126 23.0167 40.6785 23.2507 40.6785H28.1925C28.3225 40.6785 28.4266 40.7565 28.4786 40.8605L33.0042 48.2212C33.0562 48.2992 33.1343 48.3512 33.2383 48.3512H33.3423C33.4464 48.3512 33.5504 48.2992 33.5764 48.1952L37.3478 40.8865C37.3998 40.7825 37.5038 40.7045 37.6339 40.7045H42.3936C42.6277 40.7045 42.6537 40.9386 42.5756 41.1466L34.8509 56.3621C34.7989 56.4661 34.6948 56.5441 34.5648 56.5441H30.1432C29.9091 56.5181 29.7531 56.284 29.8311 56.076Z" fill="white"/>
<path d="M97.4554 1.97671L95.5567 0.338121C95.5047 0.286102 95.4007 0.260093 95.3227 0.286102L65.2039 10.0656C63.7474 7.12655 61.5106 4.62965 58.7276 2.86102C55.8146 0.988353 52.4594 0 48.9741 0C42.2897 0 36.2036 3.6413 33.0304 9.54541L2.65158 0.286102C2.57355 0.260093 2.49552 0.286102 2.4435 0.338121L0.544825 1.97671C0.492806 2.02872 0.466797 2.10675 0.466797 2.18478C0.466797 2.26281 0.518815 2.34084 0.596843 2.36685L31.1057 15.3455C30.9757 16.2558 30.8977 17.1661 30.8977 18.1025C30.8977 28.09 39.0126 36.2049 49.0001 36.2049C58.9877 36.2049 67.1026 28.09 67.1026 18.1025C67.1026 17.4262 67.0506 16.724 66.9986 16.0477L97.4034 2.36685C97.4814 2.34084 97.5335 2.26281 97.5335 2.18478C97.5335 2.10675 97.5074 2.02872 97.4554 1.97671ZM49.0001 0.234084C52.7975 0.234084 57.2451 1.61258 60.2101 4.31754C61.7967 5.77406 61.4846 7.46467 61.3025 8.401C61.2765 8.50504 61.3545 8.63508 61.3545 8.66109C62.1868 9.83151 62.4729 10.1956 63.3573 12.0683C63.3573 12.0683 64.4236 11.21 65.0999 10.3517L95.3747 0.520186L93.398 2.08074L49.4423 17.8944L36.7237 23.2003L36.6717 23.0702L39.5848 18.7267L49.2862 17.5563L50.5087 15.0854L61.6666 11.4701C62.3429 11.6522 63.0711 12.1203 63.0711 12.1203C60.6783 6.52833 55.1383 2.88703 49.0261 2.88703C43.148 2.88703 37.6601 6.03416 34.9031 11.5741C33.9147 10.7158 33.4206 9.83151 33.3165 9.59743C36.3076 4.03144 42.2117 0.234084 49.0001 0.234084ZM4.49824 2.15877L2.85965 0.598214L33.0564 9.8055C33.2125 10.1176 33.7327 11.0019 34.747 11.8602C34.8511 11.9123 34.9031 11.9123 34.9811 11.9383C35.5273 11.4961 36.1775 11.132 36.6717 10.9239L50.2486 15.0594L49.1562 17.2702L4.49824 2.15877ZM50.4827 14.8513L37.0359 10.7678C39.5848 6.63237 44.1364 4.05745 49.0001 4.05745C54.15 4.05745 58.8316 6.84044 61.3025 11.3401C60.8343 11.4961 59.6379 11.8862 56.6208 12.8486C53.9419 13.7069 50.9508 14.6692 50.4827 14.8513ZM34.9551 18.0765C34.9551 17.7123 34.9811 17.3482 35.0071 16.9841C35.1372 17.0361 38.9605 18.6747 39.2727 18.8047L36.4897 22.9142C36.4376 22.9662 36.4376 23.0442 36.4636 23.1223L36.5157 23.2523C36.5417 23.3303 36.6457 23.4604 36.7237 23.4604H50.4046C50.4306 23.4604 50.4827 23.4604 50.5087 23.4344L63.0451 17.8164C63.0451 17.9204 63.0451 18.0244 63.0451 18.1025C63.0451 25.8532 56.7509 32.1475 49.0001 32.1475C41.2494 32.1215 34.9551 25.8272 34.9551 18.0765ZM2.49552 0.598214L4.00406 2.05473L0.70088 2.15877L2.49552 0.598214ZM31.3658 15.2154C31.9901 14.5132 33.2645 13.7849 34.1228 13.4988L34.3049 13.5768C33.8627 15.0334 33.6286 16.5679 33.6286 18.1025C33.6286 22.6021 35.5793 26.6595 38.7004 29.4945C38.9345 29.7026 39.8188 30.4829 40.5731 30.873C41.3274 31.2632 41.9776 31.4973 43.3301 31.6273C43.6422 31.6533 44.1624 31.6533 44.4485 31.6533C45.879 32.1215 47.3875 32.3816 48.9741 32.3816C56.8549 32.3816 63.2532 25.9833 63.2532 18.1025C63.2532 17.8944 63.2532 17.6863 63.2272 17.4782C63.5133 16.672 63.7994 15.6056 63.8514 14.6172V14.5912L64.1895 14.4612C64.4756 15.6576 64.6057 16.854 64.6057 18.0765C64.6057 19.1168 64.5017 20.1572 64.2936 21.1456C62.8891 28.2981 56.5428 33.8901 48.9741 33.8901C44.6046 33.8901 40.7552 32.1475 37.7381 29.1044C37.6861 29.0524 37.6341 29.0264 37.556 29.0264C36.1775 28.7923 34.3309 28.038 33.1345 26.3474C31.86 23.8765 31.1317 21.0935 31.1317 18.1285C31.1317 17.1141 31.2098 16.1518 31.3658 15.2154Z" fill="white"/>
</svg>
